<?xml version="1.0" encoding="UTF-8" standalone="no"?>
<!-- Created with Inkscape (http://www.inkscape.org/) -->

<svg
   xmlns:dc="http://purl.org/dc/elements/1.1/"
   xmlns:cc="http://creativecommons.org/ns#"
   xmlns:rdf="http://www.w3.org/1999/02/22-rdf-syntax-ns#"
   xmlns:svg="http://www.w3.org/2000/svg"
   xmlns="http://www.w3.org/2000/svg"
   xmlns:sodipodi="http://sodipodi.sourceforge.net/DTD/sodipodi-0.dtd"
   xmlns:inkscape="http://www.inkscape.org/namespaces/inkscape"
   width="210mm"
   height="297mm"
   viewBox="0 0 744.09448819 1052.3622047"
   id="svg4822"
   version="1.1"
   inkscape:version="0.91 r13725"
   sodipodi:docname="Perceptron.svg"
   inkscape:export-filename="D:\PycharmProjects\charlann\img\Perceptron.png"
   inkscape:export-xdpi="90"
   inkscape:export-ydpi="90">
  <defs
     id="defs4824" />
  <sodipodi:namedview
     id="base"
     pagecolor="#ffffff"
     bordercolor="#666666"
     borderopacity="1.0"
     inkscape:pageopacity="0.0"
     inkscape:pageshadow="2"
     inkscape:zoom="2.8284271"
     inkscape:cx="332.63519"
     inkscape:cy="875.81717"
     inkscape:document-units="px"
     inkscape:current-layer="layer1"
     showgrid="true"
     inkscape:window-width="1536"
     inkscape:window-height="801"
     inkscape:window-x="-8"
     inkscape:window-y="-8"
     inkscape:window-maximized="1">
    <inkscape:grid
       type="xygrid"
       id="grid5370" />
  </sodipodi:namedview>
  <metadata
     id="metadata4827">
    <rdf:RDF>
      <cc:Work
         rdf:about="">
        <dc:format>image/svg+xml</dc:format>
        <dc:type
           rdf:resource="http://purl.org/dc/dcmitype/StillImage" />
        <dc:title></dc:title>
      </cc:Work>
    </rdf:RDF>
  </metadata>
  <g
     inkscape:label="Layer 1"
     inkscape:groupmode="layer"
     id="layer1">
    <text
       xml:space="preserve"
       style="font-style:normal;font-weight:normal;line-height:125%;font-family:sans-serif;letter-spacing:0px;word-spacing:0px;baseline-shift:baseline;fill:#000000;fill-opacity:1;stroke:none;stroke-width:1px;stroke-linecap:butt;stroke-linejoin:miter;stroke-opacity:1"
       x="110"
       y="122.3622"
       id="text5372"
       sodipodi:linespacing="125%"><tspan
         sodipodi:role="line"
         id="tspan5374"
         x="110"
         y="122.3622"
         style="font-size:18.75px">X<tspan
   style="font-size:64.99999762%;baseline-shift:sub"
   id="tspan5376">1</tspan></tspan><tspan
         sodipodi:role="line"
         x="110"
         y="145.7997"
         style="font-size:18.75px"
         id="tspan5378" /><tspan
         sodipodi:role="line"
         x="110"
         y="169.2372"
         style="font-size:18.75px"
         id="tspan5380" /><tspan
         sodipodi:role="line"
         x="110"
         y="192.6747"
         style="font-size:18.75px"
         id="tspan5382">X<tspan
   style="font-size:65%;baseline-shift:sub"
   id="tspan5410">2</tspan></tspan><tspan
         sodipodi:role="line"
         x="110"
         y="216.1122"
         style="font-size:18.75px"
         id="tspan5384" /><tspan
         sodipodi:role="line"
         x="110"
         y="239.5497"
         style="font-size:18.75px"
         id="tspan5392"> .</tspan><tspan
         sodipodi:role="line"
         x="110"
         y="262.98718"
         style="font-size:18.75px"
         id="tspan5400"> .</tspan><tspan
         sodipodi:role="line"
         x="110"
         y="286.42468"
         style="font-size:18.75px"
         id="tspan5402"> .</tspan><tspan
         sodipodi:role="line"
         x="110"
         y="309.86218"
         style="font-size:18.75px"
         id="tspan5404" /><tspan
         sodipodi:role="line"
         x="110"
         y="333.29968"
         style="font-size:18.75px"
         id="tspan5406">X<tspan
   style="font-size:64.99999762%;baseline-shift:sub"
   id="tspan5408">N</tspan></tspan></text>
    <flowRoot
       xml:space="preserve"
       id="flowRoot5412"
       style="fill:black;stroke:none;stroke-opacity:1;stroke-width:1px;stroke-linejoin:miter;stroke-linecap:butt;fill-opacity:1;font-family:sans-serif;font-style:normal;font-weight:normal;font-size:18.75px;line-height:125%;letter-spacing:0px;word-spacing:0px"><flowRegion
         id="flowRegion5414"><rect
           id="rect5416"
           width="80"
           height="70"
           x="310"
           y="172.3622" /></flowRegion><flowPara
         id="flowPara5418"></flowPara></flowRoot>    <ellipse
       style="opacity:0.75;fill:none;fill-opacity:0.40236691;stroke:#000000;stroke-width:2;stroke-miterlimit:4;stroke-dasharray:none;stroke-dashoffset:0;stroke-opacity:1"
       id="path5420"
       cx="294.73215"
       cy="215.30864"
       rx="35.064434"
       ry="34.350147" />
    <text
       xml:space="preserve"
       style="font-style:normal;font-weight:normal;font-size:18.75px;line-height:125%;font-family:sans-serif;letter-spacing:0px;word-spacing:0px;fill:#000000;fill-opacity:1;stroke:none;stroke-width:1px;stroke-linecap:butt;stroke-linejoin:miter;stroke-opacity:1"
       x="279.375"
       y="230.66577"
       id="text5424"
       sodipodi:linespacing="125%"><tspan
         sodipodi:role="line"
         id="tspan5426"
         x="279.375"
         y="230.66577"
         style="font-size:45px">Σ</tspan></text>
    <path
       style="fill:none;fill-rule:evenodd;stroke:#000000;stroke-width:1px;stroke-linecap:butt;stroke-linejoin:miter;stroke-opacity:1"
       d="m 135,327.3622 124,-112 -124,-28"
       id="path5428"
       inkscape:connector-curvature="0" />
    <path
       style="fill:none;fill-rule:evenodd;stroke:#000000;stroke-width:1px;stroke-linecap:butt;stroke-linejoin:miter;stroke-opacity:1"
       d="m 259,215.3622 -124,-98"
       id="path5430"
       inkscape:connector-curvature="0" />
    <rect
       style="opacity:0.75;fill:#ffffff;fill-opacity:1;stroke:#000000;stroke-width:0.5621984;stroke-miterlimit:4;stroke-dasharray:none;stroke-dashoffset:0;stroke-opacity:1"
       id="rect5485"
       width="30.437801"
       height="31.152088"
       x="176.92395"
       y="256.42902" />
    <text
       xml:space="preserve"
       style="font-style:normal;font-weight:normal;font-size:18.75px;line-height:125%;font-family:sans-serif;letter-spacing:0px;word-spacing:0px;fill:#000000;fill-opacity:1;stroke:none;stroke-width:1px;stroke-linecap:butt;stroke-linejoin:miter;stroke-opacity:1"
       x="181.42857"
       y="275.93362"
       id="text5487"
       sodipodi:linespacing="125%"><tspan
         sodipodi:role="line"
         id="tspan5489"
         x="181.42857"
         y="275.93362">w<tspan
   style="font-size:64.99999762%;baseline-shift:sub"
   id="tspan5491">N</tspan></tspan></text>
    <rect
       style="opacity:0.75;fill:#ffffff;fill-opacity:1;stroke:#000000;stroke-width:0.5621984;stroke-miterlimit:4;stroke-dasharray:none;stroke-dashoffset:0;stroke-opacity:1"
       id="rect5485-0"
       width="30.437801"
       height="31.152088"
       x="176.20967"
       y="146.42902" />
    <text
       xml:space="preserve"
       style="font-style:normal;font-weight:normal;font-size:18.75px;line-height:125%;font-family:sans-serif;letter-spacing:0px;word-spacing:0px;fill:#000000;fill-opacity:1;stroke:none;stroke-width:1px;stroke-linecap:butt;stroke-linejoin:miter;stroke-opacity:1"
       x="180.71429"
       y="165.93364"
       id="text5487-6"
       sodipodi:linespacing="125%"><tspan
         sodipodi:role="line"
         id="tspan5489-3"
         x="180.71429"
         y="165.93364">w<tspan
   style="font-size:64.99999762%;baseline-shift:sub"
   id="tspan5491-6">1</tspan></tspan></text>
    <flowRoot
       xml:space="preserve"
       id="flowRoot5517"
       style="fill:black;stroke:none;stroke-opacity:1;stroke-width:1px;stroke-linejoin:miter;stroke-linecap:butt;fill-opacity:1;font-family:sans-serif;font-style:normal;font-weight:normal;font-size:18.75px;line-height:125%;letter-spacing:0px;word-spacing:0px"><flowRegion
         id="flowRegion5519"><rect
           id="rect5521"
           width="180"
           height="140"
           x="-110"
           y="112.36221" /></flowRegion><flowPara
         id="flowPara5523"></flowPara></flowRoot>    <rect
       style="opacity:0.75;fill:#ffffff;fill-opacity:1;stroke:#000000;stroke-width:0.5621984;stroke-miterlimit:4;stroke-dasharray:none;stroke-dashoffset:0;stroke-opacity:1"
       id="rect5485-1"
       width="30.437801"
       height="31.152088"
       x="176.20967"
       y="187.85757" />
    <text
       xml:space="preserve"
       style="font-style:normal;font-weight:normal;font-size:18.75px;line-height:125%;font-family:sans-serif;letter-spacing:0px;word-spacing:0px;fill:#000000;fill-opacity:1;stroke:none;stroke-width:1px;stroke-linecap:butt;stroke-linejoin:miter;stroke-opacity:1"
       x="180.71428"
       y="207.3622"
       id="text5487-9"
       sodipodi:linespacing="125%"><tspan
         sodipodi:role="line"
         id="tspan5489-0"
         x="180.71428"
         y="207.3622">w<tspan
   style="font-size:64.99999762%;baseline-shift:sub"
   id="tspan5491-1">2</tspan></tspan></text>
    <path
       style="fill:none;fill-rule:evenodd;stroke:#000000;stroke-width:2.75788522;stroke-linecap:butt;stroke-linejoin:miter;stroke-miterlimit:4;stroke-dasharray:none;stroke-opacity:1"
       d="m 329.55236,215.86766 c 201.58669,-0.003 201.58669,-0.003 201.58669,-0.003"
       id="path5549"
       inkscape:connector-curvature="0" />
    <rect
       style="opacity:0.87;fill:#ffffff;fill-opacity:1;stroke:#000000;stroke-width:2;stroke-miterlimit:4;stroke-dasharray:none;stroke-dashoffset:0;stroke-opacity:1"
       id="rect5551"
       width="110"
       height="75"
       x="390"
       y="177.3622" />
    <text
       xml:space="preserve"
       style="font-style:normal;font-weight:normal;font-size:18.75px;line-height:125%;font-family:sans-serif;letter-spacing:0px;word-spacing:0px;fill:#000000;fill-opacity:1;stroke:none;stroke-width:1px;stroke-linecap:butt;stroke-linejoin:miter;stroke-opacity:1"
       x="411.7193"
       y="226.20639"
       id="text5553"
       sodipodi:linespacing="125%"><tspan
         sodipodi:role="line"
         id="tspan5555"
         x="411.7193"
         y="226.20639"
         style="font-size:37.5px">f(x)</tspan></text>
  </g>
</svg>
